…
    ## The following objects are masked from 'package:base':
    ## 
    ##     intersect, setdiff, setequal, union

Examples
--------

``` r
data1 <- fromJSON("https://api.github.com/users/hadley/repos")
data1 %>% fetch() 
```

    ## # A tibble: 69 x 5
    ##            Key Doc.count      Class Obj.len Is.terminal
    ##          <chr>     <dbl>      <chr>   <dbl>       <lgl>
    ##  1          id        30    integer       1        TRUE
    ##  2        name        30  character       1        TRUE
    ##  3   full_name        30  character       1        TRUE
    ##  4       owner        30 data.frame      17       FALSE
    ##  5     private        30    logical       1        TRUE
    ##  6    html_url        30  character       1        TRUE
    ##  7 description        27  character       1        TRUE
    ##  8        fork        30    logical       1        TRUE
    ##  9         url        30  character       1        TRUE
    ## 10   forks_url        30  character       1        TRUE
    ## # ... with 59 more rows

``` r
data1 %>% fetch() %>% dig("owner") %>% fetch()
```

    ## # A tibble: 69 x 5
    ##            Key Doc.count      Class Obj.len Is.terminal
    ##          <chr>     <dbl>      <chr>   <dbl>       <lgl>
    ##  1          id        30    integer       1        TRUE
    ##  2        name        30  character       1        TRUE
    ##  3   full_name        30  character       1        TRUE
    ##  4       owner        30 data.frame      17       FALSE
    ##  5     private        30    logical       1        TRUE
    ##  6    html_url        30  character       1        TRUE
    ##  7 description        27  character       1        TRUE
    ##  8        fork        30    logical       1        TRUE
    ##  9         url        30  character       1        TRUE
    ## 10   forks_url        30  character       1        TRUE
    ## # ... with 59 more rows
…
